<?xml version="1.0" encoding="UTF-8"?>
<svg width="12px" height="12px" viewBox="0 0 12 12" version="1.1" xmlns="http://www.w3.org/2000/svg" xmlns:xlink="http://www.w3.org/1999/xlink">
    <!-- Generator: Sketch 43.2 (39069) - http://www.bohemiancoding.com/sketch -->
    <title>Group 7</title>
    <desc>Created with Sketch.</desc>
    <defs></defs>
    <g id="Dashboard-(Vista---Admin)" stroke="none" stroke-width="1" fill="none" fill-rule="evenodd">
        <g id="2.1-Atribuir-operador" transform="translate(-287.000000, -334.000000)">
            <g id="Group-6" transform="translate(270.000000, 153.000000)">
                <g id="Group-5" transform="translate(10.000000, 60.000000)">
                    <g id="Group-11" transform="translate(7.000000, 118.000000)">
                        <g id="Group-9" transform="translate(0.000000, 3.000000)">
                            <g id="Group-7">
                                <circle id="Oval-2" fill="#868686" cx="6" cy="6" r="6"></circle>
                                <g id="Group-10" transform="translate(2.000000, 3.000000)" fill="#FFFFFF">
                                    <ellipse id="Oval-4" cx="1.71428571" cy="3" rx="1.71428571" ry="1.8"></ellipse>
                                    <ellipse id="Oval-4" stroke="#868686" cx="5.14285714" cy="3" rx="2.85714286" ry="3"></ellipse>
                                </g>
                            </g>
                        </g>
                    </g>
                </g>
            </g>
        </g>
    </g>
</svg>